{
  "meta": {
    "pagination": {
      "total": 1176,
      "pages": 59,
      "page": 1,
      "limit": 20,
      "links": {
        "previous": null,
        "current": "https://gorest.co.in/public/v1/posts?page=1",
        "next": "https://gorest.co.in/public/v1/posts?page=2"
      }
    }
  },
  "data": [
    {
      "id": 1311,
      "user_id": 1020,
      "title": "testTitle",
      "body": "testBody"
    },
    {
      "id": 931,
      "user_id": 964,
      "title": "Vetus cimentarius commodi defero umquam altus tepesco esse tristis audax.",
      "body": "Non ea surgo. Vomer certo demum. Certe torqueo universe. Tepidus cumque attero. Causa sint iure. Provident aperte undique. Deporto accusamus turba. Vis ustulo voluptatem. Alo acidus animi. Synagoga odio autem. Deinde una succurro. Est acceptus vado. Adficio eius adhuc. Ulciscor voluptates super. Vulgivagus terminatio theatrum. Tripudio vester saepe."
    },
    {
      "id": 1039,
      "user_id": 1064,
      "title": "Vos sed adiuvo pariatur vomer bene agnitio adflicto patrocinor umerus.",
      "body": "Suffragium contra decerno. Velum viridis vel. Quo suscipit abduco. Carmen agnitio deporto. Arma curiositas utor. Vicissitudo speculum sto. Calco sunt adficio. Adficio coniuratio caelum. Virga vox urbanus. Sulum vilitas et. Synagoga certe abduco. Compono trepide culpa. Unde pectus amo. Victoria cum vere. Villa subiungo illo. Cimentarius curvo sit."
    },
    {
      "id": 93,
      "user_id": 107,
      "title": "Defluo natus certus vorago ceno vobis titulus.",
      "body": "Defleo clam subseco. Esse viscus subseco. Voluptas comparo debitis. Hic unde sursum. Cicuta velum denuncio. Timidus stabilis terga. Et tempore tremo. Solvo acervus adulescens. Accendo ipsum tripudio. Deinde votum animi. Patior deprimo curvus. Deleo soluta vobis. Verecundia crur socius. Aliquam esse vespillo. Vergo architecto depopulo. Bis id minima. Unus summisse amplus. Tremo bos laborum. Derelinquo omnis dapifer. Sordeo adsum cunctatio. Tendo animi culpa. Incidunt ocer fugiat. Territo beatae illum."
    },
    {
      "id": 94,
      "user_id": 107,
      "title": "Sed vito communis videlicet calcar similique derelinquo officia spiculum suppellex tabella porro acerbitas cursim tamen conitor stillicidium modi catena.",
      "body": "Amplus adeptio vetus. Accedo adicio neque. Constans approbo adopto. Cornu versus aduro. Stabilis adhuc officia. Quo quod sophismata. Vaco antepono canonicus. Viriliter vulgivagus tantum. Assentator ab fuga. Aro subnecto collum. Admitto vito suffragium. Aut attero caute. Neque aiunt bibo. Campana conventus stella. Eaque dolor urbs. Una inflammatio sollers."
    },
    {
      "id": 95,
      "user_id": 110,
      "title": "Copia casus communis solium vociferor canto conspergo virgo odio tenuis uredo sed verbum viridis.",
      "body": "Bene adimpleo facere. Libero vitiosus tepesco. Comparo labore astrum. Admoveo urbanus viduata. Comburo sui eveniet. Advenio cum depraedor. Celer conventus anser. Et terga nemo. Copia nihil ad. Defetiscor adinventitias enim. Cogo ventus incidunt. Voro campana sufficio. Textilis volubilis approbo. Amplitudo tot spargo. Ut tepidus patrocinor. Beneficium eos bibo. Cattus vesper theatrum. Sunt claro amissio. Virga adnuo desidero. Spes thalassinus avoco. Absorbeo tubineus vito. Porro audeo suppellex. Astrum subiungo armo. Crebro omnis conor. Virga deleniti adimpleo. Cogo dicta ustulo. Alo utique amo."
    },
    {
      "id": 96,
      "user_id": 111,
      "title": "Taedium cogito officia quia solvo subvenio conforto non velit communis cito id iste addo bellicus.",
      "body": "Tantillus umquam debeo. Curvus viriliter delinquo. Tenax accipio comes. Amet consequuntur sit. Enim cinis corrumpo. Culpo cresco pectus. Clam culpa atque. Demonstro amor aperio. Unde molestiae dolore. Aperiam patrocinor velit. Reiciendis adnuo theatrum. Voluptas debitis aspernatur. Et vesper degusto. Repudiandae patria candidus. Abeo argentum curtus. Cura eos nam. Autem suadeo clamo. Certo beatae tenax. Utroque vitium aut. Vos aegre ullus. Delego conservo teres. Amoveo vero quae. Demergo curso acerbitas. Adeptio audio creta. Vorago tempora amitto. Solus una bene."
    },
    {
      "id": 97,
      "user_id": 112,
      "title": "Crudelis ipsa surgo terra quia aegre amoveo tertius causa perspiciatis turpis sumo error asperiores canis congregatio ultra agnitio arguo.",
      "body": "Curto vinculum amaritudo. Repudiandae triginta non. Appello colligo admoneo. Temptatio esse veniam. Tibi ab unde. Vulnero tunc volva. Comparo ancilla admoveo. Adulatio infit attollo. Depereo acsi tibi. Aestus cogo impedit. Doloremque alter deludo. Atrocitas strues sum. Deporto compono avarus. Acquiro custodia aduro. Non spes quidem. Aeger nam enim. Adhuc bellicus tabgo. Et subnecto tres. Tamquam denuncio caelestis. Animus sapiente dedecor. Vesco timidus magni. Video deleo ambitus. Currus turba quas. Dolor suscipit ut. Ait et rem. Tempus avarus uredo."
    },
    {
      "id": 98,
      "user_id": 113,
      "title": "Carcer vicinus caput sit bonus copiose nostrum aut textus cuius colloco argumentum facilis cruciamentum.",
      "body": "Aestus umquam alias. Acer suasoria sumptus. Astrum titulus avaritia. In virgo porro. Quibusdam summisse synagoga. Adipisci cum summisse. Carcer suus vita. Ulterius alienus collum. Volaticus voluptatem quia. Convoco ad deripio. Audentia adiuvo culpa. Consuasor damno ulterius. Damnatio viriliter consectetur. Circumvenio alii tutis. Voluptas deprimo audax. Sit auditor paens. Crux thesaurus caput. Undique ancilla usitas. Decretum solum vapulus. Distinctio cupio averto. Defero adsuesco sed."
    },
    {
      "id": 99,
      "user_id": 114,
      "title": "Substantia amplexus depraedor autus voluptatem adfectus aptus corrigo.",
      "body": "Sed termes ago. Virtus cultura earum. Deprecator corrumpo turpe. Viriliter est atrox. Valens sustineo auris. Sunt provident canis. Sed suadeo tolero. Fuga reiciendis calamitas. Clamo delibero demens. Accendo abutor avarus. Defaeco cum consequatur. Avaritia ex caries. Debilito tabula cultellus. Officiis corpus cum. Voveo bardus colo. Adamo defluo mollitia. Patrocinor ex corrigo. Tamisium amplexus itaque. Calco torqueo accusantium. Tero aut valeo. Tum ex ocer. Cogo qui vulnus. Aeger uter animi. Tenetur sunt tamquam. Aveho et cupressus. Aegrus dolores ultio. Amiculum antiquus animi. Amplus sodalitas appono. Ulterius voveo carbo."
    },
    {
      "id": 100,
      "user_id": 115,
      "title": "Officiis argentum addo cupiditas comptus verbum molestiae xiphias omnis celo ulciscor.",
      "body": "Teres conitor tergiversatio. Colligo nisi vinco. Contra conturbo acquiro. Aut tardus inventore. Argentum nam ratione. Ullam vitium desolo. Ullam capitulus celebrer. Collum tyrannus tabella. Temeritas bellum umbra. Nesciunt vitiosus labore. Quia cursus solus. Natus admoveo spargo. Triginta ambitus corpus. Vado angelus apud. Et cum temperantia. Vitiosus annus capillus. Antepono avoco coadunatio. Armo solutio quo. Utique demergo caterva. Ipsum turpe voluptatem. Civitas aequus vero. Conqueror caveo videlicet. Ea certe speculum. Talus et adultus. Ascisco similique angustus. Voluptatem quidem sol. Alias claudeo in."
    },
    {
      "id": 101,
      "user_id": 115,
      "title": "Templum aut communis synagoga et valeo capio virtus vero supra.",
      "body": "Aqua velit contabesco. Comparo aut verbera. Tres in dedico. Excepturi et voveo. Terminatio accommodo ut. Virtus venia astrum. Eligendi temeritas super. Volaticus tunc addo. Conduco velociter toties. Adduco calculus adhaero. Armo defigo versus. Tollo ipsum acervus. Terreo rerum aetas. Valde velum tyrannus. Coerceo textor vapulus. Amita neque combibo. Quam sponte aperte. Strenuus omnis ullus. Caveo spectaculum votum. Tolero undique voluptates. Debilito curiositas audeo. Charisma certus confero. Vergo tot consectetur. Thalassinus animi vel. Cultellus despecto curis. Aveho qui aer. Adicio tepesco usitas."
    },
    {
      "id": 102,
      "user_id": 119,
      "title": "Rerum substantia speculum concido atqui deludo cupressus video thorax cotidie suscipit vesica inventore turpe vesco clarus.",
      "body": "Tabernus decretum velociter. Officia aer amor. Amplitudo voluptatem fugiat. Abeo cibo iusto. Arx eligendi pectus. Torrens tondeo confido. Circumvenio vilitas adstringo. Aliquid dolorem arx. Ut valens cribro. Denique vulnero caelum. Cruciamentum terebro virga. Colligo virtus debeo. Validus ager appono. Subnecto vivo accusantium. Amicitia avarus ultra. Sapiente omnis blanditiis. Custodia demitto qui. Subiungo casso vesica. Arbitro ara in. Arca ullus vorax."
    },
    {
      "id": 103,
      "user_id": 120,
      "title": "Ceno demitto talus aegrus bellum suggero dedecor despirmatio dens desino teres arbustum cultellus.",
      "body": "Enim avarus tener. Blanditiis despecto ex. Sint accusator aduro. Auditor cubo et. Synagoga esse sit. Autem testimonium ocer. Volutabrum accendo substantia. Usque campana conatus. Solvo vorago suffragium. Tam qui atrocitas. Bene soleo certo. Civitas audentia universe. Caelestis tredecim tardus. Fugiat crur vox. Conqueror custodia thesis. Excepturi utpote vobis. Adulatio facilis sollers. Tantillus decor aspicio. Atavus corona comminor. Pecto tempora vesper."
    },
    {
      "id": 104,
      "user_id": 121,
      "title": "Sit deludo corpus fuga totam stipes vos sum trado vorago cras eum circumvenio arcus cerno.",
      "body": "Balbus carbo magnam. Ciminatio thesaurus et. Placeat comprehendo quod. Repellat auctor argumentum. Textor paens anser. Arbor depono nesciunt. Qui civis decerno. Corpus demo sint. Crebro arbitro abstergo. Suadeo solvo tenetur. Sum alioqui sufficio. Dolorem cura ut. Amor ultra adsum. Ocer velut venio. Sit ipsam abduco. Vitium adiuvo quia. Laborum alveus vulgivagus. Atrox ancilla comprehendo. Comprehendo comparo curtus."
    },
    {
      "id": 105,
      "user_id": 126,
      "title": "Utor amiculum cunctatio appello audentia campana fugiat adficio vacuus sumptus antepono capto conatus vestigium verbera tamen deleo crustulum.",
      "body": "Acer vulticulus coma. Clam caelum at. Comitatus acsi recusandae. Credo aetas decor. Uberrime adficio tamdiu. Arceo vinum minus. Tremo cibus et. Corrumpo angustus denique. Demo vulariter turbo. Venia coadunatio ullam. Debilito subseco coniuratio. Argentum claustrum molestiae. Cui degero paulatim. Videlicet vomer solum. Somnus averto verto. Sumo caute et. Similique via sed. Agnitio defleo consequatur. Absum magnam subnecto. Summisse validus cohibeo. Somnus culpa vereor. Tergiversatio illum universe."
    },
    {
      "id": 109,
      "user_id": 131,
      "title": "Aggero error utrimque testimonium thesis tam et deficio vomica aestas repudiandae amicitia.",
      "body": "Combibo sit cubo. Ut currus enim. Arx alveus comedo. Absconditus voro charisma. Attonbitus alienus sollicito. Tracto theca iste. Quis baiulus aegrotatio. Thymbra barba ubi. Audentia spiritus ulciscor. Adstringo basium derelinquo. Sumptus cervus strues. Crur debitis eum. Combibo caput animi. Odit accusantium textus. Avoco atrocitas credo. Titulus attero cavus. Ambulo sumo molestias. Advenio accipio calculus. Est terror vinum. Conventus amoveo ultio. Ratione basium decipio. Ater dolorem alienus. Cur ventosus pax. Autem nostrum quibusdam. Atqui quia correptius. Sequi convoco territo. Ambulo vulpes barba."
    },
    {
      "id": 110,
      "user_id": 131,
      "title": "Vorax auditor sopor minima thema debeo cubo nobis aurum molestiae.",
      "body": "Itaque angelus viduo. Et doloremque subito. Aggredior degusto tardus. Cruentus tot aut. Acidus tabesco stips. Valetudo cubo usus. Beatae deputo aliquid. Alveus apto consequatur. Tempus alias tabesco. Pel thorax defendo. Et armo atqui. Asperiores adeo sopor. Patruus calco demonstro. Pecto currus coniuratio. Cognatus caritas aurum. Absque circumvenio ambitus. Cunabula velut confido. Aliquid aestivus vetus."
    },
    {
      "id": 111,
      "user_id": 132,
      "title": "Brevis sophismata conservo aro illo officia reiciendis.",
      "body": "Cariosus doloremque arbitro. Dolores celebrer defleo. Vel bibo charisma. Neque temeritas centum. In harum sequi. Acervus vere suscipio. Agnitio qui defungo. Creber denuo unde. Deprimo accusantium deinde. Ullus quisquam collum. Virtus cunae incidunt. Conculco beatus vulgus. Sperno aut conservo. Defaeco vae hic. Amicitia catena vir."
    },
    {
      "id": 112,
      "user_id": 136,
      "title": "Acceptus depereo ut sed valde alo speculum cupiditate accendo omnis reprehenderit aureus ara solitudo.",
      "body": "Vesica at voluptas. Basium adficio candidus. Claro delicate sui. Solus infit acsi. Bene creator torrens. Spoliatio condico abbas. Conatus tui quod. Natus despirmatio nobis. Combibo deinde quidem. Brevis doloremque minima. Sint esse terebro. Volup spero contego. Sol bene vae. Vicissitudo trans expedita. Consuasor optio aut. Veritas ver sit. Advoco sit arguo. Amissio et suscipit. Utrum deduco addo. Pauci usque sapiente. Supplanto blanditiis summa. Blandior ambitus eum. Traho compono templum. Colo comis clarus. Quam creptio apparatus. Et valens defungo. Vero crebro temperantia."
    }
  ]
}